…
      $opera_pred
      # A tibble: 1 x 37
        INPUT   FOUND_BY DTXSID PREFERRED_NAME DTXCID CASRN INCHIKEY IUPAC_NAME SMILES
        <chr>   <chr>    <chr>  <chr>          <chr>  <chr> <chr>    <chr>      <chr> 
      1 50-00-0 CASRN    DTXSI~ Formaldehyde   DTXCI~ 50-0~ WSFSSNU~ Formaldeh~ C=O   
      # i 28 more variables: INCHI_STRING <chr>, MOLECULAR_FORMULA <chr>,
      #   SAFETY_DATA <chr>, TOXVAL_DATA <chr>, NUMBER_OF_PUBMED_ARTICLES <dbl>,
      #   PUBCHEM_DATA_SOURCES <dbl>, CPDAT_COUNT <dbl>, IRIS_LINK <chr>,
      #   PPRTV_LINK <lgl>, BIOCONCENTRATION_FACTOR_TEST_PRED <lgl>,
      #   `48HR_DAPHNIA_LC50_MOL/L_TEST_PRED` <lgl>, DEVTOX_TEST_PRED <lgl>,
      #   `96HR_FATHEAD_MINNOW_MOL/L_TEST_PRED` <lgl>,
      #   AMES_MUTAGENICITY_TEST_PRED <dbl>, ...
      
      $tox_val
      # A tibble: 1,124 x 68
         SEARCHED_CHEMICAL DTXSID        CASRN   NAME    SOURCE SUB_SOURCE TOXVAL_TYPE
         <chr>             <chr>         <chr>   <chr>   <chr>  <chr>      <chr>      
       1 Formaldehyde      DTXSID7020637 50-00-0 Formal~ ATSDR~ CDC        MRL        
       2 Formaldehyde      DTXSID7020637 50-00-0 Formal~ ATSDR~ CDC        MRL        
       3 Formaldehyde      DTXSID7020637 50-00-0 Formal~ ATSDR~ CDC        MRL        
       4 Formaldehyde      DTXSID7020637 50-00-0 Formal~ ATSDR~ CDC        MRL        
       5 Formaldehyde      DTXSID7020637 50-00-0 Formal~ ATSDR~ CDC        MRL        
       6 Formaldehyde      DTXSID7020637 50-00-0 Formal~ ATSDR~ CDC        NOAEL      
       7 Formaldehyde      DTXSID7020637 50-00-0 Formal~ ATSDR~ CDC        NOAEL      
       8 Formaldehyde      DTXSID7020637 50-00-0 Formal~ ATSDR~ CDC        NOAEL      
       9 Formaldehyde      DTXSID7020637 50-00-0 Formal~ ATSDR~ CDC        NOAEL      
      10 Formaldehyde      DTXSID7020637 50-00-0 Formal~ ATSDR~ CDC        NOAEL      
      # i 1,114 more rows
      # i 61 more variables: TOXVAL_TYPE_ORIGINAL <chr>, TOXVAL_SUBTYPE <chr>,
      #   TOXVAL_TYPE_SUPERCATEGORY <chr>, TOXVAL_TYPE_CATEGORY <chr>,
      #   QUALIFIER <chr>, TOXVAL_NUMERIC <dbl>, TOXVAL_NUMERIC_ORIGINAL <chr>,
      #   TOXVAL_UNITS <chr>, TOXVAL_UNITS_ORIGINAL <chr>,
      #   RISK_ASSESSMENT_CLASS <chr>, STUDY_TYPE <chr>, STUDY_TYPE_ORIGINAL <chr>,
      #   STUDY_DURATION_CLASS <chr>, STUDY_DURATION_CLASS_ORIGINAL <chr>, ...
…
