…
      $comptox_abstract_sifter
      # A tibble: 1 x 3
        DSSTOX_LINK_TO_DASHBOARD PREFERRED_NAME `CHEMICAL/ENTITY_QUERY`
        <chr>                    <chr>          <chr>                  
      1 DTXSID7020637            Formaldehyde   50-00-0 OR Formaldehyde
      
      $comptox_synonym_identifier
      # A tibble: 1 x 3
        SEARCHED_CHEMICAL IDENTIFIER                                        `PC-CODES`
        <chr>             <chr>                                             <chr>     
      1 Formaldehyde      NSC 298885|UN 2209|Formalin 40|Superlysoform|For~ PC-043001 
      
      $comptox_related_relationships
      # A tibble: 56 x 7
         INPUT   DTXSID        PREFERRED_NAME HAS_RELATIONSHIP_WITH  RELATED_DTXSID 
         <chr>   <chr>         <chr>          <chr>                  <chr>          
       1 50-00-0 DTXSID7020637 Formaldehyde   Searched Chemical      DTXSID7020637  
       2 50-00-0 DTXSID7020637 Formaldehyde   Predecessor: Component DTXSID6029709  
       3 50-00-0 DTXSID7020637 Formaldehyde   Predecessor: Component DTXSID6029757  
       4 50-00-0 DTXSID7020637 Formaldehyde   Predecessor: Component DTXSID60873853 
       5 50-00-0 DTXSID7020637 Formaldehyde   Predecessor: Component DTXSID60905168 
       6 50-00-0 DTXSID7020637 Formaldehyde   Predecessor: Component DTXSID6094144  
       7 50-00-0 DTXSID7020637 Formaldehyde   Predecessor: Component DTXSID8049626  
       8 50-00-0 DTXSID7020637 Formaldehyde   Predecessor: Component DTXSID701029969
       9 50-00-0 DTXSID7020637 Formaldehyde   Predecessor: Component DTXSID701092815
      10 50-00-0 DTXSID7020637 Formaldehyde   Predecessor: Component DTXSID70873849 
      # i 46 more rows
      # i 2 more variables: RELATED_PREFERRED_NAME <chr>, RELATED_CASRN <chr>
      
      $comptox_toxcast_assays_ac50
      # A tibble: 1,485 x 2
         INPUT                            `50-00-0_DTXSID7020637`
         <chr>                            <chr>                  
       1 ACEA_AR_agonist_80hr             -                      
       2 ACEA_AR_agonist_AUC_viability    -                      
       3 ACEA_AR_antagonist_80hr          -                      
       4 ACEA_AR_antagonist_AUC_viability -                      
       5 ACEA_ER_80hr                     -                      
       6 ACEA_ER_AUC_viability            -                      
       7 APR_HepG2_CellCycleArrest_1hr    -                      
       8 APR_HepG2_CellCycleArrest_24hr   -                      
       9 APR_HepG2_CellCycleArrest_72hr   -                      
      10 APR_HepG2_CellLoss_1hr           -                      
      # i 1,475 more rows
      
      $comptox_toxval_details
      # A tibble: 143 x 63
         SEARCHED_CHEMICAL DTXSID        CASRN   NAME    SOURCE SUB_SOURCE TOXVAL_TYPE
         <chr>             <chr>         <chr>   <chr>   <chr>  <chr>      <chr>      
       1 Formaldehyde      DTXSID7020637 50-00-0 Formal~ NIOSH  -          IDLH       
       2 Formaldehyde      DTXSID7020637 50-00-0 Formal~ Cal O~ Cal OEHHA~ cancer slo~
       3 Formaldehyde      DTXSID7020637 50-00-0 Formal~ ATSDR  -          LOAEL      
       4 Formaldehyde      DTXSID7020637 50-00-0 Formal~ ATSDR  -          LOAEL      
       5 Formaldehyde      DTXSID7020637 50-00-0 Formal~ ATSDR  -          MRL        
       6 Formaldehyde      DTXSID7020637 50-00-0 Formal~ ATSDR  -          MRL        
       7 Formaldehyde      DTXSID7020637 50-00-0 Formal~ ATSDR  -          MRL        
       8 Formaldehyde      DTXSID7020637 50-00-0 Formal~ ATSDR  -          MRL        
       9 Formaldehyde      DTXSID7020637 50-00-0 Formal~ ATSDR  -          MRL        
      10 Formaldehyde      DTXSID7020637 50-00-0 Formal~ ATSDR  -          NOAEL      
      # i 133 more rows
      # i 56 more variables: TOXVAL_SUBTYPE <chr>, TOXVAL_TYPE_SUPERCATEGORY <chr>,
      #   QUALIFIER <chr>, TOXVAL_NUMERIC <dbl>, TOXVAL_UNITS <chr>,
      #   RISK_ASSESSMENT_CLASS <chr>, STUDY_TYPE <chr>, STUDY_DURATION_CLASS <chr>,
      #   STUDY_DURATION_VALUE <dbl>, STUDY_DURATION_UNITS <chr>,
      #   SPECIES_COMMON <chr>, STRAIN <chr>, LATIN_NAME <chr>,
      #   SPECIES_SUPERCATEGORY <chr>, SEX <chr>, GENERATION <chr>, ...
      
      $comptox_chemical_properties
      # A tibble: 46 x 8
         DTXSID        DTXCID      TYPE         NAME    VALUE UNITS SOURCE DESCRIPTION
         <chr>         <chr>       <chr>        <chr>   <chr> <chr> <chr>  <chr>      
       1 DTXSID7020637 DTXCID30637 experimental Henry'~ 3.37~ atm-~ "Phys~ "The PHYSP~
       2 DTXSID7020637 DTXCID30637 experimental Boilin~ -21.~ C    "NIOS~ "The NIOSH~
       3 DTXSID7020637 DTXCID30637 experimental Boilin~ -19.1 C    "Phys~ "The PHYSP~
       4 DTXSID7020637 DTXCID30637 experimental Meltin~ -92.~ C    "NIOS~ "The NIOSH~
       5 DTXSID7020637 DTXCID30637 experimental Meltin~ -92.0 C    "Jean~ "Jean-Clau~
       6 DTXSID7020637 DTXCID30637 experimental Water ~ 13.2  mol/L "Kovd~ "Kovdienko~
       7 DTXSID7020637 DTXCID30637 experimental Water ~ 13.2~ mol/L "Phys~ "The PHYSP~
       8 DTXSID7020637 DTXCID30637 experimental Water ~ 18.2  mol/L "Lewi~ "Lewis, K.~
       9 DTXSID7020637 DTXCID30637 experimental LogKow~ 0.35  <NA>  "Phys~ "The PHYSP~
      10 DTXSID7020637 DTXCID30637 experimental pKa Ba~ 1.15  <NA>  "Data~ "This pKa ~
      # i 36 more rows
