Download and Extract Data from CompTox Chemistry Dashboard — extr_comptox • extractox
…
#> # A tibble: 2 × 3
#>   DSSTOX_LINK_TO_DASHBOARD PREFERRED_NAME `CHEMICAL/ENTITY_QUERY`
#>   <chr>                    <chr>          <chr>                  
#> 1 DTXSID5020108            Aspirin        50-78-2 OR Aspirin     
#> 2 DTXSID7020637            Formaldehyde   50-00-0 OR Formaldehyde
#> 
#> $comptox_synonym_identifier
#> # A tibble: 2 × 3
#>   SEARCHED_CHEMICAL IDENTIFIER                                        `PC-CODES`
#>   <chr>             <chr>                                             <chr>     
#> 1 Aspirin           Synonym data is too big for the Excel cell - Ref… PC-129061 
#> 2 Formaldehyde      NSC 298885|UN 2209|Formalin 40|Superlysoform|For… PC-043001 
#> 
#> $comptox_related_relationships
#> # A tibble: 60 × 7
#>    INPUT   DTXSID        PREFERRED_NAME HAS_RELATIONSHIP_WITH  RELATED_DTXSID 
#>    <chr>   <chr>         <chr>          <chr>                  <chr>          
#>  1 Aspirin DTXSID5020108 Aspirin        Searched Chemical      DTXSID5020108  
#>  2 Aspirin DTXSID5020108 Aspirin        Predecessor: Component DTXSID0020109  
#>  3 Aspirin DTXSID5020108 Aspirin        Predecessor: Component DTXSID701336718
#>  4 Aspirin DTXSID5020108 Aspirin        Transformation Product DTXSID5021708  
#>  5 50-00-0 DTXSID7020637 Formaldehyde   Searched Chemical      DTXSID7020637  
#>  6 50-00-0 DTXSID7020637 Formaldehyde   Predecessor: Component DTXSID6029709  
#>  7 50-00-0 DTXSID7020637 Formaldehyde   Predecessor: Component DTXSID6029757  
#>  8 50-00-0 DTXSID7020637 Formaldehyde   Predecessor: Component DTXSID60873853 
#>  9 50-00-0 DTXSID7020637 Formaldehyde   Predecessor: Component DTXSID60905168 
#> 10 50-00-0 DTXSID7020637 Formaldehyde   Predecessor: Component DTXSID6094144  
#> # ℹ 50 more rows
#> # ℹ 2 more variables: RELATED_PREFERRED_NAME <chr>, RELATED_CASRN <chr>
#> 
#> $comptox_toxcast_assays_ac50
#> # A tibble: 1,485 × 3
#>    INPUT                            50-00-0_DTXSID702063…¹ ASPIRIN_DTXSID5020108
#>    <chr>                            <chr>                  <chr>                
#>  1 ACEA_AR_agonist_80hr             -                      1000000.0            
#>  2 ACEA_AR_agonist_AUC_viability    -                      1000000.0            
#>  3 ACEA_AR_antagonist_80hr          -                      1000000.0            
#>  4 ACEA_AR_antagonist_AUC_viability -                      1000000.0            
#>  5 ACEA_ER_80hr                     -                      1000000.0            
#>  6 ACEA_ER_AUC_viability            -                      1000000.0            
#>  7 APR_HepG2_CellCycleArrest_1hr    -                      -                    
#>  8 APR_HepG2_CellCycleArrest_24hr   -                      1000000.0            
#>  9 APR_HepG2_CellCycleArrest_72hr   -                      1000000.0            
#> 10 APR_HepG2_CellLoss_1hr           -                      -                    
#> # ℹ 1,475 more rows
#> # ℹ abbreviated name: ¹​`50-00-0_DTXSID7020637`
#> 
#> $comptox_toxval_details
#> # A tibble: 158 × 63
#>    SEARCHED_CHEMICAL DTXSID        CASRN   NAME    SOURCE SUB_SOURCE TOXVAL_TYPE
#>    <chr>             <chr>         <chr>   <chr>   <chr>  <chr>      <chr>      
#>  1 Aspirin           DTXSID5020108 50-78-2 Aspirin NLM C… -          LD50       
#>  2 Aspirin           DTXSID5020108 50-78-2 Aspirin NLM C… -          LD50       
#>  3 Aspirin           DTXSID5020108 50-78-2 Aspirin NLM C… -          LD50       
#>  4 Aspirin           DTXSID5020108 50-78-2 Aspirin GESTI… -          DNEL syste…
#>  5 Aspirin           DTXSID5020108 50-78-2 Aspirin DOD M… TLVadj     MEG        
#>  6 Aspirin           DTXSID5020108 50-78-2 Aspirin DOD M… TLV_TWA    MEG        
#>  7 Aspirin           DTXSID5020108 50-78-2 Aspirin DOD M… TLV_TWA    MEG        
#>  8 Aspirin           DTXSID5020108 50-78-2 Aspirin ECHA … Developme… NOAEL      
#>  9 Aspirin           DTXSID5020108 50-78-2 Aspirin ECHA … Developme… NOAEL      
#> 10 Aspirin           DTXSID5020108 50-78-2 Aspirin EPA E… EPA ORD    LOEL       
#> # ℹ 148 more rows
#> # ℹ 56 more variables: TOXVAL_SUBTYPE <chr>, TOXVAL_TYPE_SUPERCATEGORY <chr>,
#> #   QUALIFIER <chr>, TOXVAL_NUMERIC <dbl>, TOXVAL_UNITS <chr>,
#> #   RISK_ASSESSMENT_CLASS <chr>, STUDY_TYPE <chr>, STUDY_DURATION_CLASS <chr>,
#> #   STUDY_DURATION_VALUE <dbl>, STUDY_DURATION_UNITS <chr>,
#> #   SPECIES_COMMON <chr>, STRAIN <chr>, LATIN_NAME <chr>,
#> #   SPECIES_SUPERCATEGORY <chr>, SEX <chr>, GENERATION <chr>, …
#> 
#> $comptox_chemical_properties
#> # A tibble: 101 × 8
#>    DTXSID        DTXCID      TYPE         NAME    VALUE UNITS SOURCE DESCRIPTION
#>    <chr>         <chr>       <chr>        <chr>   <chr> <chr> <chr>  <chr>      
#>  1 DTXSID5020108 DTXCID50108 predicted    Flash … 131.… °C    ACD/L… "ACD/Labs …
#>  2 DTXSID5020108 DTXCID50108 experimental Meltin… 138.0 °C    Alfa … "Alfa Aesa…
#>  3 DTXSID5020108 DTXCID50108 experimental Meltin… 136.5 °C    Alfa … "Alfa Aesa…
#>  4 DTXSID5020108 DTXCID50108 experimental Boilin… 140.0 °C    NIOSH  "The NIOSH…
#>  5 DTXSID5020108 DTXCID50108 experimental Boilin… 140.0 °C    Oxfor… "Until 201…
#>  6 DTXSID5020108 DTXCID50108 experimental Meltin… 122.0 °C    MolMa… "MolMall p…
#>  7 DTXSID5020108 DTXCID50108 experimental Meltin… 134.0 °C    Tokyo… "Tokyo Che…
#>  8 DTXSID5020108 DTXCID50108 experimental Meltin… 135.0 °C    Jean-… "Jean-Clau…
#>  9 DTXSID5020108 DTXCID50108 experimental Meltin… 135.0 °C    PhysP… "The PHYSP…
#> 10 DTXSID5020108 DTXCID50108 experimental Meltin… 136.0 °C    LKT L… "LKT Labor…
#> # ℹ 91 more rows
…
